{
	"status" : "OK",
	"listaNve" : [{
			"especificacao" : "0001 - RN - Relaxação normal",
			"atributo" : "AA-TIPO",
			"codTec" : "72171019",
			"codNve" : 14870
		}, {
			"especificacao" : "0002 - RB - Relaxação baixa",
			"atributo" : "AA-TIPO",
			"codTec" : "72171019",
			"codNve" : 14871
		}, {
			"especificacao" : "9999 - Outros",
			"atributo" : "AA-TIPO",
			"codTec" : "72171019",
			"codNve" : 14872
		}
	]
}
